{
  "description_FR": "Construction de bâtiments de bureau neuf",
  "description_EN": "",
  "unit": "m2",
  "group": "construction",
  "decomposition": {
    "2013": {
      "total": {
        "total": 457,
        "uncertainty": 0.5
      }
    }
  }
}
