[
  {
    "nom": "Slovaquie",
    "name": "Slovakia",
    "iso": "SK"
  },
  {
    "nom": "République Démocratique Populaire Lao",
    "name": "Lao People's Democratic Republic",
    "iso": "LA"
  },
  {
    "nom": "Kazakhstan",
    "name": "Kazakhstan",
    "iso": "KZ"
  },
  {
    "nom": "Saint-Vincent-Et-Les Grenadines",
    "name": "Saint Vincent and the Grenadines",
    "iso": "VC"
  },
  {
    "nom": "Samoa Américaines",
    "name": "American Samoa",
    "iso": "AS"
  },
  {
    "nom": "Albanie",
    "name": "Albania",
    "iso": "AL"
  },
  {
    "nom": "Thaïlande",
    "name": "Thailand",
    "iso": "TH"
  },
  {
    "nom": "Antarctique",
    "name": "Antarctica",
    "iso": "AQ"
  },
  {
    "nom": "Comores",
    "name": "Comoros",
    "iso": "KM"
  },
  {
    "nom": "Liberia",
    "name": "Liberia",
    "iso": "LR"
  },
  {
    "nom": "Costa Rica",
    "name": "Costa Rica",
    "iso": "CR"
  },
  {
    "nom": "Portugal",
    "name": "Portugal",
    "iso": "PT"
  },
  {
    "nom": "Îles Turks-Et-Caïcos",
    "name": "Turks and Caicos Islands",
    "iso": "TC"
  },
  {
    "nom": "Terres Australes Françaises",
    "name": "French Southern Territories",
    "iso": "TF"
  },
  {
    "nom": "Nouvelle-Calédonie",
    "name": "New Caledonia",
    "iso": "NC"
  },
  {
    "nom": "Kiribati",
    "name": "Kiribati",
    "iso": "KI"
  },
  {
    "nom": "Martinique",
    "name": "Martinique",
    "iso": "MQ"
  },
  {
    "nom": "Maurice",
    "name": "Mauritius",
    "iso": "MU"
  },
  {
    "nom": "Îles Vierges Britanniques",
    "name": "Virgin Islands (British)",
    "iso": "VG"
  },
  {
    "nom": "Oman",
    "name": "Oman",
    "iso": "OM"
  },
  {
    "nom": "Aruba",
    "name": "Aruba",
    "iso": "AW"
  },
  {
    "nom": "Groenland",
    "name": "Greenland",
    "iso": "GL"
  },
  {
    "nom": "Yémen",
    "name": "Yemen",
    "iso": "YE"
  },
  {
    "nom": "Pays-Bas",
    "name": "Netherlands",
    "iso": "NL"
  },
  {
    "nom": "Sao Tomé-Et-Principe",
    "name": "Sao Tome and Principe",
    "iso": "ST"
  },
  {
    "nom": "République Dominicaine",
    "name": "Dominican Republic",
    "iso": "DO"
  },
  {
    "nom": "Îles Mariannes Du Nord",
    "name": "Northern Mariana Islands",
    "iso": "MP"
  },
  {
    "nom": "Timor-Leste",
    "name": "Timor-Leste",
    "iso": "TL"
  },
  {
    "nom": "Îles Heard-Et-MacDonald",
    "name": "Heard Island and McDonald Islands",
    "iso": "HM"
  },
  {
    "nom": "Îles Cook",
    "name": "Cook Islands",
    "iso": "CK"
  },
  {
    "nom": "Réunion",
    "name": "Réunion",
    "iso": "RE"
  },
  {
    "nom": "Saint-Barthélemy",
    "name": "Saint Barthélemy",
    "iso": "BL"
  },
  {
    "nom": "Éthiopie",
    "name": "Ethiopia",
    "iso": "ET"
  },
  {
    "nom": "République Tchèque",
    "name": "Czechia",
    "iso": "CZ"
  },
  {
    "nom": "Argentine",
    "name": "Argentina",
    "iso": "AR"
  },
  {
    "nom": "Mozambique",
    "name": "Mozambique",
    "iso": "MZ"
  },
  {
    "nom": "Îles Malouines",
    "name": "Falkland Islands (Malvinas)",
    "iso": "FK"
  },
  {
    "nom": "Bulgarie",
    "name": "Bulgaria",
    "iso": "BG"
  },
  {
    "nom": "Viet Nam",
    "name": "Viet Nam",
    "iso": "VN"
  },
  {
    "nom": "Congo",
    "name": "Congo",
    "iso": "CG"
  },
  {
    "nom": "Soudan",
    "name": "Sudan",
    "iso": "SD"
  },
  {
    "nom": "Kirghizistan",
    "name": "Kyrgyzstan",
    "iso": "KG"
  },
  {
    "nom": "Irlande",
    "name": "Ireland",
    "iso": "IE"
  },
  {
    "nom": "Guam",
    "name": "Guam",
    "iso": "GU"
  },
  {
    "nom": "Grenade",
    "name": "Grenada",
    "iso": "GD"
  },
  {
    "nom": "Brésil",
    "name": "Brazil",
    "iso": "BR"
  },
  {
    "nom": "Mayotte",
    "name": "Mayotte",
    "iso": "YT"
  },
  {
    "nom": "Arabie Saoudite",
    "name": "Saudi Arabia",
    "iso": "SA"
  },
  {
    "nom": "Dominique",
    "name": "Dominica",
    "iso": "DM"
  },
  {
    "nom": "États Fédérés De Micronésie",
    "name": "Micronesia (Federated States of)",
    "iso": "FM"
  },
  {
    "nom": "Venezuela",
    "name": "Venezuela (Bolivarian Republic of)",
    "iso": "VE"
  },
  {
    "nom": "Sri Lanka",
    "name": "Sri Lanka",
    "iso": "LK"
  },
  {
    "nom": "Saint-Christophe-et-Niévès",
    "name": "Saint Kitts and Nevis",
    "iso": "KN"
  },
  {
    "nom": "Azerbaïdjan",
    "name": "Azerbaijan",
    "iso": "AZ"
  },
  {
    "nom": "Gibraltar",
    "name": "Gibraltar",
    "iso": "GI"
  },
  {
    "nom": "Papouasie-Nouvelle-Guinée",
    "name": "Papua New Guinea",
    "iso": "PG"
  },
  {
    "nom": "Guatemala",
    "name": "Guatemala",
    "iso": "GT"
  },
  {
    "nom": "Macao",
    "name": "Macao",
    "iso": "MO"
  },
  {
    "nom": "Burundi",
    "name": "Burundi",
    "iso": "BI"
  },
  {
    "nom": "Bénin",
    "name": "Benin",
    "iso": "BJ"
  },
  {
    "nom": "Soudan Du Sud",
    "name": "South Sudan",
    "iso": "SS"
  },
  {
    "nom": "Afghanistan",
    "name": "Afghanistan",
    "iso": "AF"
  },
  {
    "nom": "Cap-Vert",
    "name": "Cabo Verde",
    "iso": "CV"
  },
  {
    "nom": "Lituanie",
    "name": "Lithuania",
    "iso": "LT"
  },
  {
    "nom": "Mexique",
    "name": "Mexico",
    "iso": "MX"
  },
  {
    "nom": "Guyane",
    "name": "French Guiana",
    "iso": "GF"
  },
  {
    "nom": "Guinée-Bissau",
    "name": "Guinea-Bissau",
    "iso": "GW"
  },
  {
    "nom": "Djibouti",
    "name": "Djibouti",
    "iso": "DJ"
  },
  {
    "nom": "Île Christmas",
    "name": "Christmas Island",
    "iso": "CX"
  },
  {
    "nom": "République-Unie De Tanzanie",
    "name": "Tanzania, United Republic of",
    "iso": "TZ"
  },
  {
    "nom": "Indonésie",
    "name": "Indonesia",
    "iso": "ID"
  },
  {
    "nom": "Lesotho",
    "name": "Lesotho",
    "iso": "LS"
  },
  {
    "nom": "Turquie",
    "name": "Turkey",
    "iso": "TR"
  },
  {
    "nom": "Monténégro",
    "name": "Montenegro",
    "iso": "ME"
  },
  {
    "nom": "République Du Salvador",
    "name": "El Salvador",
    "iso": "SV"
  },
  {
    "nom": "Côte D'Ivoire",
    "name": "Côte d'Ivoire",
    "iso": "CI"
  },
  {
    "nom": "Australie",
    "name": "Australia",
    "iso": "AU"
  },
  {
    "nom": "Sénégal",
    "name": "Senegal",
    "iso": "SN"
  },
  {
    "nom": "Bahreïn",
    "name": "Bahrain",
    "iso": "BH"
  },
  {
    "nom": "Italie",
    "name": "Italy",
    "iso": "IT"
  },
  {
    "nom": "Îles Cocos",
    "name": "Cocos (Keeling) Islands",
    "iso": "CC"
  },
  {
    "nom": "Émirats Arabes Unis",
    "name": "United Arab Emirates",
    "iso": "AE"
  },
  {
    "nom": "Tuvalu",
    "name": "Tuvalu",
    "iso": "TV"
  },
  {
    "nom": "Grèce",
    "name": "Greece",
    "iso": "GR"
  },
  {
    "nom": "Antigua-Et-Barbuda",
    "name": "Antigua and Barbuda",
    "iso": "AG"
  },
  {
    "nom": "Jamaïque",
    "name": "Jamaica",
    "iso": "JM"
  },
  {
    "nom": "Royaume-Uni",
    "name": "United Kingdom of Great Britain and Northern Ireland",
    "iso": "GB"
  },
  {
    "nom": "Malaisie",
    "name": "Malaysia",
    "iso": "MY"
  },
  {
    "nom": "Slovénie",
    "name": "Slovenia",
    "iso": "SI"
  },
  {
    "nom": "Liban",
    "name": "Lebanon",
    "iso": "LB"
  },
  {
    "nom": "Serbie",
    "name": "Serbia",
    "iso": "RS"
  },
  {
    "nom": "Madagascar",
    "name": "Madagascar",
    "iso": "MG"
  },
  {
    "nom": "Islande",
    "name": "Iceland",
    "iso": "IS"
  },
  {
    "nom": "Îles Salomon",
    "name": "Solomon Islands",
    "iso": "SB"
  },
  {
    "nom": "Somalie",
    "name": "Somalia",
    "iso": "SO"
  },
  {
    "nom": "Îles Mineures Éloignées Des États-Unis",
    "name": "United States Minor Outlying Islands",
    "iso": "UM"
  },
  {
    "nom": "Jordanie",
    "name": "Jordan",
    "iso": "JO"
  },
  {
    "nom": "Ouganda",
    "name": "Uganda",
    "iso": "UG"
  },
  {
    "nom": "Cambodge",
    "name": "Cambodia",
    "iso": "KH"
  },
  {
    "nom": "Suriname",
    "name": "Suriname",
    "iso": "SR"
  },
  {
    "nom": "Saint-Siège (État De La Cité Du Vatican)",
    "name": "Holy See",
    "iso": "VA"
  },
  {
    "nom": "Namibie",
    "name": "Namibia",
    "iso": "NA"
  },
  {
    "nom": "Nauru",
    "name": "Nauru",
    "iso": "NR"
  },
  {
    "nom": "Paraguay",
    "name": "Paraguay",
    "iso": "PY"
  },
  {
    "nom": "Montserrat",
    "name": "Montserrat",
    "iso": "MS"
  },
  {
    "nom": "Finlande",
    "name": "Finland",
    "iso": "FI"
  },
  {
    "nom": "Belize",
    "name": "Belize",
    "iso": "BZ"
  },
  {
    "nom": "Saint-Martin (Partie Française)",
    "name": "Saint Martin (French part)",
    "iso": "MF"
  },
  {
    "nom": "Pologne",
    "name": "Poland",
    "iso": "PL"
  },
  {
    "nom": "Mauritanie",
    "name": "Mauritania",
    "iso": "MR"
  },
  {
    "nom": "Allemagne",
    "name": "Germany",
    "iso": "DE"
  },
  {
    "nom": "Luxembourg",
    "name": "Luxembourg",
    "iso": "LU"
  },
  {
    "nom": "Russie",
    "name": "Russian Federation",
    "iso": "RU"
  },
  {
    "nom": "Sainte-Hélène",
    "name": "Saint Helena, Ascension and Tristan da Cunha",
    "iso": "SH"
  },
  {
    "nom": "Érythrée",
    "name": "Eritrea",
    "iso": "ER"
  },
  {
    "nom": "Jersey",
    "name": "Jersey",
    "iso": "JE"
  },
  {
    "nom": "Guinée",
    "name": "Guinea",
    "iso": "GN"
  },
  {
    "nom": "Japon",
    "name": "Japan",
    "iso": "JP"
  },
  {
    "nom": "Guyana",
    "name": "Guyana",
    "iso": "GY"
  },
  {
    "nom": "Colombie",
    "name": "Colombia",
    "iso": "CO"
  },
  {
    "nom": "Îles Åland",
    "name": "Åland Islands",
    "iso": "AX"
  },
  {
    "nom": "Liechtenstein",
    "name": "Liechtenstein",
    "iso": "LI"
  },
  {
    "nom": "Hongrie",
    "name": "Hungary",
    "iso": "HU"
  },
  {
    "nom": "Ukraine",
    "name": "Ukraine",
    "iso": "UA"
  },
  {
    "nom": "Chine",
    "name": "China",
    "iso": "CN"
  },
  {
    "nom": "Koweït",
    "name": "Kuwait",
    "iso": "KW"
  },
  {
    "nom": "Rwanda",
    "name": "Rwanda",
    "iso": "RW"
  },
  {
    "nom": "Bonaire, Saint-Eustache Et Saba",
    "name": "Bonaire, Sint Eustatius and Saba",
    "iso": "BQ"
  },
  {
    "nom": "Tonga",
    "name": "Tonga",
    "iso": "TO"
  },
  {
    "nom": "République Islamique D'Iran",
    "name": "Iran (Islamic Republic of)",
    "iso": "IR"
  },
  {
    "nom": "Ouzbékistan",
    "name": "Uzbekistan",
    "iso": "UZ"
  },
  {
    "nom": "Tchad",
    "name": "Chad",
    "iso": "TD"
  },
  {
    "nom": "Autriche",
    "name": "Austria",
    "iso": "AT"
  },
  {
    "nom": "Malte",
    "name": "Malta",
    "iso": "MT"
  },
  {
    "nom": "Chypre",
    "name": "Cyprus",
    "iso": "CY"
  },
  {
    "nom": "Territoires Palestiniens Occupés",
    "name": "Palestine, State of",
    "iso": "PS"
  },
  {
    "nom": "Estonie",
    "name": "Estonia",
    "iso": "EE"
  },
  {
    "nom": "Arménie",
    "name": "Armenia",
    "iso": "AM"
  },
  {
    "nom": "Îles Marshall",
    "name": "Marshall Islands",
    "iso": "MH"
  },
  {
    "nom": "Qatar",
    "name": "Qatar",
    "iso": "QA"
  },
  {
    "nom": "République Démocratique Du Congo",
    "name": "Congo, Democratic Republic of the",
    "iso": "CD"
  },
  {
    "nom": "Guadeloupe",
    "name": "Guadeloupe",
    "iso": "GP"
  },
  {
    "nom": "Île Norfolk",
    "name": "Norfolk Island",
    "iso": "NF"
  },
  {
    "nom": "Angola",
    "name": "Angola",
    "iso": "AO"
  },
  {
    "nom": "Canada",
    "name": "Canada",
    "iso": "CA"
  },
  {
    "nom": "Panama",
    "name": "Panama",
    "iso": "PA"
  },
  {
    "nom": "Mongolie",
    "name": "Mongolia",
    "iso": "MN"
  },
  {
    "nom": "Burkina Faso",
    "name": "Burkina Faso",
    "iso": "BF"
  },
  {
    "nom": "Niger",
    "name": "Niger",
    "iso": "NE"
  },
  {
    "nom": "Curaçao",
    "name": "Curaçao",
    "iso": "CW"
  },
  {
    "nom": "Philippines",
    "name": "Philippines",
    "iso": "PH"
  },
  {
    "nom": "Pakistan",
    "name": "Pakistan",
    "iso": "PK"
  },
  {
    "nom": "Égypte",
    "name": "Egypt",
    "iso": "EG"
  },
  {
    "nom": "Îles Caïmans",
    "name": "Cayman Islands",
    "iso": "KY"
  },
  {
    "nom": "Monaco",
    "name": "Monaco",
    "iso": "MC"
  },
  {
    "nom": "Porto Rico",
    "name": "Puerto Rico",
    "iso": "PR"
  },
  {
    "nom": "Sainte-Lucie",
    "name": "Saint Lucia",
    "iso": "LC"
  },
  {
    "nom": "Botswana",
    "name": "Botswana",
    "iso": "BW"
  },
  {
    "nom": "Biélorussie",
    "name": "Belarus",
    "iso": "BY"
  },
  {
    "nom": "Saint-Martin (Partie Néerlandaise)",
    "name": "Sint Maarten (Dutch part)",
    "iso": "SX"
  },
  {
    "nom": "Îles Féroé",
    "name": "Faroe Islands",
    "iso": "FO"
  },
  {
    "nom": "Turkménistan",
    "name": "Turkmenistan",
    "iso": "TM"
  },
  {
    "nom": "Wallis Et Futuna",
    "name": "Wallis and Futuna",
    "iso": "WF"
  },
  {
    "nom": "Saint-Marin",
    "name": "San Marino",
    "iso": "SM"
  },
  {
    "nom": "Nouvelle-Zélande",
    "name": "New Zealand",
    "iso": "NZ"
  },
  {
    "nom": "Îles Vierges Des États-Unis",
    "name": "Virgin Islands (U.S.)",
    "iso": "VI"
  },
  {
    "nom": "Sahara Occidental",
    "name": "Western Sahara",
    "iso": "EH"
  },
  {
    "nom": "État Plurinational De Bolivie",
    "name": "Bolivia (Plurinational State of)",
    "iso": "BO"
  },
  {
    "nom": "Géorgie",
    "name": "Georgia",
    "iso": "GE"
  },
  {
    "nom": "Île Bouvet",
    "name": "Bouvet Island",
    "iso": "BV"
  },
  {
    "nom": "Bermudes",
    "name": "Bermuda",
    "iso": "BM"
  },
  {
    "nom": "Tadjikistan",
    "name": "Tajikistan",
    "iso": "TJ"
  },
  {
    "nom": "Chili",
    "name": "Chile",
    "iso": "CL"
  },
  {
    "nom": "Barbade",
    "name": "Barbados",
    "iso": "BB"
  },
  {
    "nom": "Maroc",
    "name": "Morocco",
    "iso": "MA"
  },
  {
    "nom": "République De Moldavie",
    "name": "Moldova, Republic of",
    "iso": "MD"
  },
  {
    "nom": "Cuba",
    "name": "Cuba",
    "iso": "CU"
  },
  {
    "nom": "Roumanie",
    "name": "Romania",
    "iso": "RO"
  },
  {
    "nom": "Vanuatu",
    "name": "Vanuatu",
    "iso": "VU"
  },
  {
    "nom": "Danemark",
    "name": "Denmark",
    "iso": "DK"
  },
  {
    "nom": "États-Unis",
    "name": "United States of America",
    "iso": "US"
  },
  {
    "nom": "Hong Kong",
    "name": "Hong Kong",
    "iso": "HK"
  },
  {
    "nom": "Gambie",
    "name": "Gambia",
    "iso": "GM"
  },
  {
    "nom": "Afrique Du Sud",
    "name": "South Africa",
    "iso": "ZA"
  },
  {
    "nom": "République Arabe Syrienne",
    "name": "Syrian Arab Republic",
    "iso": "SY"
  },
  {
    "nom": "Guinée Équatoriale",
    "name": "Equatorial Guinea",
    "iso": "GQ"
  },
  {
    "nom": "Pitcairn",
    "name": "Pitcairn",
    "iso": "PN"
  },
  {
    "nom": "Tunisie",
    "name": "Tunisia",
    "iso": "TN"
  },
  {
    "nom": "Pérou",
    "name": "Peru",
    "iso": "PE"
  },
  {
    "nom": "Kenya",
    "name": "Kenya",
    "iso": "KE"
  },
  {
    "nom": "Svalbard Et Jan Mayen",
    "name": "Svalbard and Jan Mayen",
    "iso": "SJ"
  },
  {
    "nom": "Saint-Pierre-Et-Miquelon",
    "name": "Saint Pierre and Miquelon",
    "iso": "PM"
  },
  {
    "nom": "Île De Man",
    "name": "Isle of Man",
    "iso": "IM"
  },
  {
    "nom": "Bahamas",
    "name": "Bahamas",
    "iso": "BS"
  },
  {
    "nom": "Tokelau",
    "name": "Tokelau",
    "iso": "TK"
  },
  {
    "nom": "Algérie",
    "name": "Algeria",
    "iso": "DZ"
  },
  {
    "nom": "Macédoine",
    "name": "North Macedonia",
    "iso": "MK"
  },
  {
    "nom": "Maldives",
    "name": "Maldives",
    "iso": "MV"
  },
  {
    "nom": "République De Corée",
    "name": "Korea, Republic of",
    "iso": "KR"
  },
  {
    "nom": "Bosnie-Herzégovine",
    "name": "Bosnia and Herzegovina",
    "iso": "BA"
  },
  {
    "nom": "Israël",
    "name": "Israel",
    "iso": "IL"
  },
  {
    "nom": "Norvège",
    "name": "Norway",
    "iso": "NO"
  },
  {
    "nom": "Nigéria",
    "name": "Nigeria",
    "iso": "NG"
  },
  {
    "nom": "Taïwan",
    "name": "Taiwan, Province of China",
    "iso": "TW"
  },
  {
    "nom": "Guernesey",
    "name": "Guernsey",
    "iso": "GG"
  },
  {
    "nom": "Ghana",
    "name": "Ghana",
    "iso": "GH"
  },
  {
    "nom": "Libye",
    "name": "Libya",
    "iso": "LY"
  },
  {
    "nom": "Géorgie Du Sud-Et-Les Îles Sandwich Du Sud",
    "name": "South Georgia and the South Sandwich Islands",
    "iso": "GS"
  },
  {
    "nom": "Cameroun",
    "name": "Cameroon",
    "iso": "CM"
  },
  {
    "nom": "Équateur",
    "name": "Ecuador",
    "iso": "EC"
  },
  {
    "nom": "Seychelles",
    "name": "Seychelles",
    "iso": "SC"
  },
  {
    "nom": "France",
    "name": "France",
    "iso": "FR"
  },
  {
    "nom": "Gabon",
    "name": "Gabon",
    "iso": "GA"
  },
  {
    "nom": "Nicaragua",
    "name": "Nicaragua",
    "iso": "NI"
  },
  {
    "nom": "Niue",
    "name": "Niue",
    "iso": "NU"
  },
  {
    "nom": "République Centrafricaine",
    "name": "Central African Republic",
    "iso": "CF"
  },
  {
    "nom": "Belgique",
    "name": "Belgium",
    "iso": "BE"
  },
  {
    "nom": "Uruguay",
    "name": "Uruguay",
    "iso": "UY"
  },
  {
    "nom": "Croatie",
    "name": "Croatia",
    "iso": "HR"
  },
  {
    "nom": "Zambie",
    "name": "Zambia",
    "iso": "ZM"
  },
  {
    "nom": "Samoa",
    "name": "Samoa",
    "iso": "WS"
  },
  {
    "nom": "Andorre",
    "name": "Andorra",
    "iso": "AD"
  },
  {
    "nom": "Bangladesh",
    "name": "Bangladesh",
    "iso": "BD"
  },
  {
    "nom": "Sierra Leone",
    "name": "Sierra Leone",
    "iso": "SL"
  },
  {
    "nom": "Suisse",
    "name": "Switzerland",
    "iso": "CH"
  },
  {
    "nom": "Territoire Britannique De L'océan Indien",
    "name": "British Indian Ocean Territory",
    "iso": "IO"
  },
  {
    "nom": "Inde",
    "name": "India",
    "iso": "IN"
  },
  {
    "nom": "Palaos",
    "name": "Palau",
    "iso": "PW"
  },
  {
    "nom": "Togo",
    "name": "Togo",
    "iso": "TG"
  },
  {
    "nom": "République Populaire Démocratique De Corée",
    "name": "Korea (Democratic People's Republic of)",
    "iso": "KP"
  },
  {
    "nom": "Zimbabwe",
    "name": "Zimbabwe",
    "iso": "ZW"
  },
  {
    "nom": "Lettonie",
    "name": "Latvia",
    "iso": "LV"
  },
  {
    "nom": "Swaziland",
    "name": "Eswatini",
    "iso": "SZ"
  },
  {
    "nom": "Haïti",
    "name": "Haiti",
    "iso": "HT"
  },
  {
    "nom": "Népal",
    "name": "Nepal",
    "iso": "NP"
  },
  {
    "nom": "Malawi",
    "name": "Malawi",
    "iso": "MW"
  },
  {
    "nom": "Irak",
    "name": "Iraq",
    "iso": "IQ"
  },
  {
    "nom": "Fidji",
    "name": "Fiji",
    "iso": "FJ"
  },
  {
    "nom": "Birmanie",
    "name": "Myanmar",
    "iso": "MM"
  },
  {
    "nom": "Singapour",
    "name": "Singapore",
    "iso": "SG"
  },
  {
    "nom": "Brunei Darussalam",
    "name": "Brunei Darussalam",
    "iso": "BN"
  },
  {
    "nom": "Bhoutan",
    "name": "Bhutan",
    "iso": "BT"
  },
  {
    "nom": "Polynésie Française",
    "name": "French Polynesia",
    "iso": "PF"
  },
  {
    "nom": "Mali",
    "name": "Mali",
    "iso": "ML"
  },
  {
    "nom": "Trinité-Et-Tobago",
    "name": "Trinidad and Tobago",
    "iso": "TT"
  },
  {
    "nom": "Anguilla",
    "name": "Anguilla",
    "iso": "AI"
  },
  {
    "nom": "Espagne",
    "name": "Spain",
    "iso": "ES"
  },
  {
    "nom": "Suède",
    "name": "Sweden",
    "iso": "SE"
  },
  {
    "nom": "Honduras",
    "name": "Honduras",
    "iso": "HN"
  }
]
